Extended exercise
…
Attaching package: 'janitor'

The following object is masked from 'package:rstatix':

    make_clean_names

The following objects are masked from 'package:stats':

    chisq.test, fisher.test

all_chicks %>% 
    clean_names()

# A tibble: 578 × 5
   weight  time chick  diet chick_name
    <dbl> <dbl> <dbl> <dbl> <chr>     
 1     42     0     1     1 Chick_1   
 2     51     2     1     1 Chick_1   
 3     59     4     1     1 Chick_1   
 4     64     6     1     1 Chick_1   
 5     76     8     1     1 Chick_1   
 6     93    10     1     1 Chick_1   
 7    106    12     1     1 Chick_1   
 8    125    14     1     1 Chick_1   
 9    149    16     1     1 Chick_1   
10    171    18     1     1 Chick_1   
# … with 568 more rows
…
Answer

R
Python

mean increase in weight surviving chicks

survived_chicks %>% 
  group_by(chick_id) %>% 
  summarise(mean_weight_increase =
              mean(max(weight - min(weight)))) %>% 
  ungroup()

# A tibble: 45 × 2
   chick_id mean_weight_increase
   <chr>                   <dbl>
 1 Chick_1                   163
 2 Chick_10                   83
 3 Chick_11                  141
 4 Chick_12                  164
 5 Chick_13                   55
 6 Chick_14                  225
 7 Chick_17                  100
 8 Chick_19                  114
 9 Chick_2                   175
10 Chick_20                   76
# … with 35 more rows
…
